Close time = 17:
Testing code parallel_attempt_7_without_parr_worst.cpp and parallel_attempt_7_worst.cpp:
Serial 1x:
recursion time: 19925
Total runtime:  19941
Parallel 8 threads 1x:
recursion time: 8382
Total runtime:  8393
