Close time = 22:
Testing code parallel_attempt_7_without_parr.cpp and parallel_attempt_7.cpp:
Serial:
9:h, 10:c, 11:a, 12:b, 13:h, 14:b, 15:b, 16:g, 17:b, 18:a, 19:f, 20:a, 21:a, 56024
Parallel 8 threads:
9:h, 10:c, 11:a, 12:b, 13:h, 14:b, 15:b, 16:g, 17:b, 18:a, 19:f, 20:a, 21:a, 52306
