Close time = 16:
Testing code parallel_attempt_7_without_parr_worst.cpp and parallel_attempt_7_worst.cpp:
Serial 1x:
/var/lib/slurmd/job13037677/slurm_script: line 17: ./run_serial_worse_2.exe: No such file or directory
Total runtime:  15
Parallel 8 threads 1x:
recursion time: 1087
Total runtime:  1096
