Close time = 19:
Testing code parallel_attempt_7_without_parr_worst.cpp and parallel_attempt_7_worst.cpp:
Serial:
9:a, 10:a, 11:a, 12:a, 13:a, 14:a, 15:a, 16:a, 17:a, 18:a, 1433421
Parallel 8 threads:
139
