Close time = 17:
Testing code parallel_attempt_7_without_parr_worst.cpp and parallel_attempt_7_worst.cpp:
Serial 1x:
recursion time: 20233
Total runtime:  20285
Parallel 8 threads 1x:
recursion time: 8529
Total runtime:  8542
